<?xml version="1.0" encoding="UTF-8" standalone="no"?>
<!-- Created with Inkscape (http://www.inkscape.org/) -->

<svg
   width="320"
   height="240"
   id="svg2"
   sodipodi:version="0.32"
   inkscape:version="1.1.1 (3bf5ae0d25, 2021-09-20)"
   version="1.0"
   sodipodi:docname="card-image.svg"
   inkscape:output_extension="org.inkscape.output.svg.inkscape"
   inkscape:export-filename="板.png"
   inkscape:export-xdpi="90"
   inkscape:export-ydpi="90"
   xmlns:inkscape="http://www.inkscape.org/namespaces/inkscape"
   xmlns:sodipodi="http://sodipodi.sourceforge.net/DTD/sodipodi-0.dtd"
   xmlns="http://www.w3.org/2000/svg"
   xmlns:svg="http://www.w3.org/2000/svg"
   xmlns:rdf="http://www.w3.org/1999/02/22-rdf-syntax-ns#"
   xmlns:cc="http://creativecommons.org/ns#"
   xmlns:dc="http://purl.org/dc/elements/1.1/">
  <defs
     id="defs4" />
  <sodipodi:namedview
     id="base"
     pagecolor="#ffffff"
     bordercolor="#666666"
     borderopacity="1.0"
     inkscape:pageopacity="1"
     inkscape:pageshadow="2"
     inkscape:zoom="1.4142136"
     inkscape:cx="228.39548"
     inkscape:cy="89.802559"
     inkscape:document-units="px"
     inkscape:current-layer="layer1"
     showgrid="false"
     inkscape:showpageshadow="false"
     inkscape:window-width="1920"
     inkscape:window-height="1011"
     inkscape:window-x="0"
     inkscape:window-y="32"
     inkscape:window-maximized="1"
     inkscape:pagecheckerboard="0" />
  <metadata
     id="metadata7">
    <rdf:RDF>
      <cc:Work
         rdf:about="">
        <dc:format>image/svg+xml</dc:format>
        <dc:type
           rdf:resource="http://purl.org/dc/dcmitype/StillImage" />
      </cc:Work>
    </rdf:RDF>
  </metadata>
  <g
     inkscape:label="Capa 1"
     inkscape:groupmode="layer"
     id="layer1">
    <rect
       style="opacity:1;fill:none;fill-opacity:1;stroke:#000000;stroke-width:1.00012994;stroke-linecap:round;stroke-miterlimit:4;stroke-dasharray:none;stroke-dashoffset:0;stroke-opacity:1"
       id="rect2383"
       width="318.99988"
       height="238.99986"
       x="0.50006104"
       y="0.50006866" />
    <path
       d="m 87.949997,139.91001 c 0,-16.28 9.24,-27.72 20.020003,-27.72 7.26,0 12.54,6.16 12.54,16.5 0,14.74 -4.84,30.14 -17.38,30.14 -7.920003,0 -15.180003,-6.82 -15.180003,-18.92 z m 124.740003,2.64 c 1.32,8.8 1.54,16.06 1.54,24.64 0,14.52 -6.6,20.9 -18.04,24.2 -7.7,2.2 -24.86,3.74 -36.96,3.74 -31.68,0 -34.54,-4.4 -34.54,-16.5 0,-3.96 0.22,-9.24 0.44,-13.86 8.58,-9.68 11.44,-24.86 11.44,-36.96 0,-7.48 -1.98,-14.08 -5.5,-19.36 V 75.670005 c 13.42,-1.32 28.16,-3.52 41.58,-6.6 v -16.94 c -13.64,3.74 -27.94,6.38 -41.58,7.7 v -9.46 c 0,-8.14 0.66,-16.06 1.32,-20.68 h -19.36 c 1.1,4.62 1.54,11.88 1.54,20.68 v 10.78 c -3.08,0.22 -5.94,0.22 -8.8,0.22 -10.780003,0 -21.560003,-0.88 -34.540003,-2.86 l 0.88,16.28 c 12.54,1.76 25.3,2.2 34.760003,2.2 2.42,0 5.06,0 7.7,-0.22 v 21.56 c -1.76,-0.22 -3.74,-0.44 -5.72,-0.44 -21.340003,0 -35.640003,20.460005 -35.640003,42.900005 0,25.3 15.84,34.32 28.160003,34.32 2.42,0 4.84,-0.22 6.82,-0.66 0,3.3 -0.22,6.82 -0.22,10.56 0,16.06 6.6,26.62 50.16,26.62 14.3,0 35.64,-1.76 45.1,-4.18 19.8,-5.5 27.5,-14.96 28.38,-35.42 0.44,-9.02 0.22,-11.88 0,-23.54 z m -15.4,-79.420005 c 12.1,8.58 31.9,27.5 42.46,41.140005 l 12.32,-12.540005 c -9.68,-12.32 -30.58,-31.68 -43.34,-40.26 z"
       style="font-size:220px;line-height:1.25;font-family:'Droid Sans Japanese';-inkscape-font-specification:'Droid Sans Japanese';text-align:center;text-anchor:middle;fill:#333333"
       id="path3567" />
  </g>
</svg>
